{
  "hosting": {
    "public": "__sapper__/export",
    "ignore": [
      "firebase.json",
      "**/.*",
      "**/node_modules/**"
    ],
    "rewrites": [
      {
        "source": "**",
        "destination": "/index.html"
      }
    ]
  },
  "functions": {
    "source": "functions"
  },
  "emulators": {
    "functions": {
      "port": 5002
    },
    "firestore": {
      "port": 8081
    },
    "hosting": {
      "port": 5001
    },
    "ui": {
      "enabled": true
    }
  }
}
